{
    "administratori": [
        {
            "prezime": "Mitrovic",
            "obrisan": false,
            "ime": "Aleksandra",
            "lozinka": "l",
            "korisnickoIme": "a"
        },
        {
            "ime": "asd ime",
            "prezime": "asd",
            "obrisan": false,
            "lozinka": "asd",
            "korisnickoIme": "asd"
        },
        {
            "prezime": "asdsdas",
            "obrisan": false,
            "ime": "asd",
            "lozinka": "asddas",
            "korisnickoIme": "dasdsadas"
        }
    ],
    "nastavnici": [
        {
            "prezime": "Peric",
            "obrisan": false,
            "ime": "Nenad",
            "lozinka": "lozNenad",
            "korisnickoIme": "nenadP",
            "email": "nenad.peric@gmail.com",
            "zvanje": "REDOVAN_PROFESOR"
        },
        {
            "ime": "asd",
            "prezime": "asd",
            "obrisan": true,
            "lozinka": "ads",
            "korisnickoIme": "asdasd",
            "email": "sad",
            "zvanje": "ASISTENT"
        },
        {
            "prezime": "asd",
            "obrisan": false,
            "ime": "asd",
            "lozinka": "asd",
            "korisnickoIme": "asdasdasdas",
            "email": "asd",
            "zvanje": "REDOVAN_PROFESOR"
        }
    ],
    "studenti": [{
        "prezime": "Jovic",
        "obrisan": false,
        "ime": "Nikola",
        "lozinka": "sirfaje",
        "indeks": {
            "fakultet": "Fakultet tehnickih nauka",
            "smer": "Softversko i informaciono inzenjerstvo",
            "broj": 2525,
            "student": "Nikola Jovic",
            "univerzitet": "Singidunum",
            "ispiti": [],
            "godina upisa": 2016,
            "godina studija": "druga"
        },
        "brojTelefona": 112683694,
        "korisnickoIme": "nikolaJ",
        "email": "nikola.jovic@gmai.com"
    }]
}